{
	"global": {
		"APIurl": "http://greenet-api.bukla.co",
		"APIkey": "LN5oFfV57TnKNxKTCR1R4tpn2yUJnt5w6Az0WfjwLErrnnKaOnqIAWrVXFXcwL4x"
	},
	"env:development": {},
	"env:test": {},
	"env:production": {},
	"os:android": {},
	"os:ios": {},
	"os:windows": {},
	"dependencies": {}
}